EESchema Schematic File Version 4
LIBS:l293-cache
EELAYER 29 0
EELAYER END
$Descr A4 11693 8268
encoding utf-8
Sheet 1 1
Title ""
Date ""
Rev ""
Comp ""
Comment1 ""
Comment2 ""
Comment3 ""
Comment4 ""
$EndDescr
$Comp
L Driver_Motor:L293 U1
U 1 1 5CF81601
P 5900 3850
F 0 "U1" H 5900 5031 50  0000 C CNN
F 1 "L293" H 5900 4940 50  0000 C CNN
F 2 "Package_DIP:DIP-16_W7.62mm_LongPads" H 6150 3100 50  0001 L CNN
F 3 "http://www.ti.com/lit/ds/symlink/l293.pdf" H 5600 4550 50  0001 C CNN
	1    5900 3850
	1    0    0    -1  
$EndComp
$Comp
L power:PWR_FLAG #FLG02
U 1 1 5CF83977
P 3550 2900
F 0 "#FLG02" H 3550 2975 50  0001 C CNN
F 1 "PWR_FLAG" H 3550 3073 50  0000 C CNN
F 2 "" H 3550 2900 50  0001 C CNN
F 3 "~" H 3550 2900 50  0001 C CNN
	1    3550 2900
	1    0    0    -1  
$EndComp
$Comp
L power:PWR_FLAG #FLG03
U 1 1 5CF83ABE
P 4000 2900
F 0 "#FLG03" H 4000 2975 50  0001 C CNN
F 1 "PWR_FLAG" H 4000 3073 50  0000 C CNN
F 2 "" H 4000 2900 50  0001 C CNN
F 3 "~" H 4000 2900 50  0001 C CNN
	1    4000 2900
	1    0    0    -1  
$EndComp
$Comp
L power:GND #PWR07
U 1 1 5CF83D37
P 4000 3150
F 0 "#PWR07" H 4000 2900 50  0001 C CNN
F 1 "GND" H 4005 2977 50  0000 C CNN
F 2 "" H 4000 3150 50  0001 C CNN
F 3 "" H 4000 3150 50  0001 C CNN
	1    4000 3150
	1    0    0    -1  
$EndComp
$Comp
L power:+9V #PWR06
U 1 1 5CF83EB0
P 3550 3150
F 0 "#PWR06" H 3550 3000 50  0001 C CNN
F 1 "+9V" H 3565 3323 50  0000 C CNN
F 2 "" H 3550 3150 50  0001 C CNN
F 3 "" H 3550 3150 50  0001 C CNN
	1    3550 3150
	-1   0    0    1   
$EndComp
$Comp
L power:PWR_FLAG #FLG01
U 1 1 5CF856BC
P 3100 2900
F 0 "#FLG01" H 3100 2975 50  0001 C CNN
F 1 "PWR_FLAG" H 3100 3073 50  0000 C CNN
F 2 "" H 3100 2900 50  0001 C CNN
F 3 "~" H 3100 2900 50  0001 C CNN
	1    3100 2900
	1    0    0    -1  
$EndComp
$Comp
L power:+5V #PWR05
U 1 1 5CF85A09
P 3100 3150
F 0 "#PWR05" H 3100 3000 50  0001 C CNN
F 1 "+5V" H 3115 3323 50  0000 C CNN
F 2 "" H 3100 3150 50  0001 C CNN
F 3 "" H 3100 3150 50  0001 C CNN
	1    3100 3150
	-1   0    0    1   
$EndComp
Wire Wire Line
	3100 3150 3100 2900
Wire Wire Line
	3550 2900 3550 3150
Wire Wire Line
	4000 3150 4000 2900
$Comp
L power:GND #PWR010
U 1 1 5CF8636D
P 5700 4950
F 0 "#PWR010" H 5700 4700 50  0001 C CNN
F 1 "GND" H 5705 4777 50  0000 C CNN
F 2 "" H 5700 4950 50  0001 C CNN
F 3 "" H 5700 4950 50  0001 C CNN
	1    5700 4950
	1    0    0    -1  
$EndComp
Wire Wire Line
	5700 4950 5700 4750
Wire Wire Line
	5700 4750 5800 4750
Wire Wire Line
	6100 4750 6100 4650
Connection ~ 5700 4750
Wire Wire Line
	5700 4750 5700 4650
Wire Wire Line
	6000 4650 6000 4750
Connection ~ 6000 4750
Wire Wire Line
	6000 4750 6100 4750
Wire Wire Line
	5800 4650 5800 4750
Connection ~ 5800 4750
Wire Wire Line
	5800 4750 6000 4750
$Comp
L power:+5V #PWR09
U 1 1 5CF876E2
P 4750 4250
F 0 "#PWR09" H 4750 4100 50  0001 C CNN
F 1 "+5V" H 4765 4423 50  0000 C CNN
F 2 "" H 4750 4250 50  0001 C CNN
F 3 "" H 4750 4250 50  0001 C CNN
	1    4750 4250
	1    0    0    -1  
$EndComp
Wire Wire Line
	4750 4250 5400 4250
$Comp
L Connector:Conn_01x02_Female J2
U 1 1 5CF89B8A
P 3200 3900
F 0 "J2" H 3228 3876 50  0000 L CNN
F 1 "Vmotor" H 3228 3785 50  0000 L CNN
F 2 "Connector_PinHeader_2.54mm:PinHeader_1x02_P2.54mm_Vertical" H 3200 3900 50  0001 C CNN
F 3 "~" H 3200 3900 50  0001 C CNN
	1    3200 3900
	1    0    0    -1  
$EndComp
$Comp
L power:+9V #PWR03
U 1 1 5CF8A23C
P 2850 3700
F 0 "#PWR03" H 2850 3550 50  0001 C CNN
F 1 "+9V" H 2865 3873 50  0000 C CNN
F 2 "" H 2850 3700 50  0001 C CNN
F 3 "" H 2850 3700 50  0001 C CNN
	1    2850 3700
	1    0    0    -1  
$EndComp
$Comp
L power:+5V #PWR01
U 1 1 5CF8A6C3
P 1900 3700
F 0 "#PWR01" H 1900 3550 50  0001 C CNN
F 1 "+5V" H 1915 3873 50  0000 C CNN
F 2 "" H 1900 3700 50  0001 C CNN
F 3 "" H 1900 3700 50  0001 C CNN
	1    1900 3700
	1    0    0    -1  
$EndComp
Wire Wire Line
	2850 3700 2850 3900
Wire Wire Line
	2850 3900 3000 3900
$Comp
L Connector:Conn_01x02_Female J1
U 1 1 5CF89EA8
P 2350 3900
F 0 "J1" H 2378 3876 50  0000 L CNN
F 1 "Vcc" H 2378 3785 50  0000 L CNN
F 2 "Connector_PinHeader_2.54mm:PinHeader_1x02_P2.54mm_Vertical" H 2350 3900 50  0001 C CNN
F 3 "~" H 2350 3900 50  0001 C CNN
	1    2350 3900
	1    0    0    -1  
$EndComp
Wire Wire Line
	1900 3700 1900 3800
Wire Wire Line
	1900 3900 2150 3900
$Comp
L power:GND #PWR04
U 1 1 5CF96114
P 2850 4150
F 0 "#PWR04" H 2850 3900 50  0001 C CNN
F 1 "GND" H 2855 3977 50  0000 C CNN
F 2 "" H 2850 4150 50  0001 C CNN
F 3 "" H 2850 4150 50  0001 C CNN
	1    2850 4150
	1    0    0    -1  
$EndComp
$Comp
L power:GND #PWR02
U 1 1 5CF9681E
P 1900 4150
F 0 "#PWR02" H 1900 3900 50  0001 C CNN
F 1 "GND" H 1905 3977 50  0000 C CNN
F 2 "" H 1900 4150 50  0001 C CNN
F 3 "" H 1900 4150 50  0001 C CNN
	1    1900 4150
	1    0    0    -1  
$EndComp
Wire Wire Line
	1900 4150 1900 4100
Wire Wire Line
	1900 4000 2150 4000
Wire Wire Line
	3000 4000 2850 4000
Wire Wire Line
	2850 4000 2850 4150
$Comp
L power:+5V #PWR011
U 1 1 5CF98098
P 5800 2550
F 0 "#PWR011" H 5800 2400 50  0001 C CNN
F 1 "+5V" H 5815 2723 50  0000 C CNN
F 2 "" H 5800 2550 50  0001 C CNN
F 3 "" H 5800 2550 50  0001 C CNN
	1    5800 2550
	1    0    0    -1  
$EndComp
Wire Wire Line
	5800 2550 5800 2850
$Comp
L power:+5V #PWR08
U 1 1 5CF9A123
P 4750 3650
F 0 "#PWR08" H 4750 3500 50  0001 C CNN
F 1 "+5V" H 4765 3823 50  0000 C CNN
F 2 "" H 4750 3650 50  0001 C CNN
F 3 "" H 4750 3650 50  0001 C CNN
	1    4750 3650
	1    0    0    -1  
$EndComp
Wire Wire Line
	4750 3650 5400 3650
$Comp
L power:+9V #PWR012
U 1 1 5CF9A8D4
P 6000 2550
F 0 "#PWR012" H 6000 2400 50  0001 C CNN
F 1 "+9V" H 6015 2723 50  0000 C CNN
F 2 "" H 6000 2550 50  0001 C CNN
F 3 "" H 6000 2550 50  0001 C CNN
	1    6000 2550
	1    0    0    -1  
$EndComp
Wire Wire Line
	6000 2550 6000 2850
$Comp
L Connector:Conn_01x02_Female J4
U 1 1 5CF9B66C
P 4950 3250
F 0 "J4" H 4842 3435 50  0000 C CNN
F 1 "CTRL M1" H 4842 3344 50  0000 C CNN
F 2 "Connector_PinHeader_2.54mm:PinHeader_1x02_P2.54mm_Vertical" H 4950 3250 50  0001 C CNN
F 3 "~" H 4950 3250 50  0001 C CNN
	1    4950 3250
	-1   0    0    -1  
$EndComp
$Comp
L Connector:Conn_01x02_Female J3
U 1 1 5CFA0D93
P 4950 3950
F 0 "J3" H 4842 4135 50  0000 C CNN
F 1 "Ctrl M2" H 4842 4044 50  0000 C CNN
F 2 "Connector_PinHeader_2.54mm:PinHeader_1x02_P2.54mm_Vertical" H 4950 3950 50  0001 C CNN
F 3 "~" H 4950 3950 50  0001 C CNN
	1    4950 3950
	-1   0    0    -1  
$EndComp
Wire Wire Line
	5150 3250 5400 3250
Wire Wire Line
	5250 3450 5400 3450
Wire Wire Line
	5250 3850 5400 3850
$Comp
L Connector:Conn_01x02_Female J5
U 1 1 5CFA26F5
P 7450 3250
F 0 "J5" H 7478 3226 50  0000 L CNN
F 1 "M1" H 7478 3135 50  0000 L CNN
F 2 "Connector_PinHeader_2.54mm:PinHeader_1x02_P2.54mm_Vertical" H 7450 3250 50  0001 C CNN
F 3 "~" H 7450 3250 50  0001 C CNN
	1    7450 3250
	1    0    0    -1  
$EndComp
$Comp
L Connector:Conn_01x02_Female J6
U 1 1 5CFA3557
P 7450 3950
F 0 "J6" H 7478 3926 50  0000 L CNN
F 1 "M2" H 7478 3835 50  0000 L CNN
F 2 "Connector_PinHeader_2.54mm:PinHeader_1x02_P2.54mm_Vertical" H 7450 3950 50  0001 C CNN
F 3 "~" H 7450 3950 50  0001 C CNN
	1    7450 3950
	1    0    0    -1  
$EndComp
$Comp
L Device:CP1_Small C1
U 1 1 5CF8AA67
P 1450 3950
F 0 "C1" H 1541 3996 50  0000 L CNN
F 1 "CP1_Small" H 1541 3905 50  0000 L CNN
F 2 "Capacitor_THT:CP_Radial_D4.0mm_P1.50mm" H 1450 3950 50  0001 C CNN
F 3 "~" H 1450 3950 50  0001 C CNN
	1    1450 3950
	1    0    0    -1  
$EndComp
Wire Wire Line
	1900 3800 1450 3800
Wire Wire Line
	1450 3800 1450 3850
Connection ~ 1900 3800
Wire Wire Line
	1900 3800 1900 3900
Wire Wire Line
	1450 4050 1450 4100
Wire Wire Line
	1450 4100 1900 4100
Connection ~ 1900 4100
Wire Wire Line
	1900 4100 1900 4000
$Comp
L Device:C C2
U 1 1 5CF932D6
P 6800 3400
F 0 "C2" H 6915 3446 50  0000 L CNN
F 1 "C" H 6915 3355 50  0000 L CNN
F 2 "Capacitor_THT:C_Disc_D3.0mm_W1.6mm_P2.50mm" H 6838 3250 50  0001 C CNN
F 3 "~" H 6800 3400 50  0001 C CNN
	1    6800 3400
	1    0    0    -1  
$EndComp
$Comp
L Device:C C3
U 1 1 5CF94765
P 6800 3900
F 0 "C3" H 6915 3946 50  0000 L CNN
F 1 "C" H 6915 3855 50  0000 L CNN
F 2 "Capacitor_THT:C_Disc_D3.0mm_W1.6mm_P2.50mm" H 6838 3750 50  0001 C CNN
F 3 "~" H 6800 3900 50  0001 C CNN
	1    6800 3900
	1    0    0    -1  
$EndComp
Wire Wire Line
	6400 4050 6800 4050
Wire Wire Line
	6400 3850 6550 3850
Wire Wire Line
	6550 3850 6550 3750
Wire Wire Line
	6550 3750 6800 3750
Wire Wire Line
	7250 4050 6800 4050
Connection ~ 6800 4050
Wire Wire Line
	6800 3750 7250 3750
Wire Wire Line
	7250 3750 7250 3950
Connection ~ 6800 3750
Wire Wire Line
	5150 4050 5400 4050
Wire Wire Line
	5250 3850 5250 3950
Wire Wire Line
	5250 3950 5150 3950
Wire Wire Line
	5250 3450 5250 3350
Wire Wire Line
	5250 3350 5150 3350
Wire Wire Line
	7250 3250 6800 3250
Wire Wire Line
	6800 3250 6400 3250
Connection ~ 6800 3250
Wire Wire Line
	6400 3450 6550 3450
Wire Wire Line
	6550 3450 6550 3550
Wire Wire Line
	6550 3550 6800 3550
Wire Wire Line
	6800 3550 7250 3550
Wire Wire Line
	7250 3550 7250 3350
Connection ~ 6800 3550
$EndSCHEMATC
